﻿<?xml version="1.0" encoding="utf-8"?>
<!DOCTYPE svg PUBLIC "-//W3C//DTD SVG 1.1//EN" "http://www.w3.org/Graphics/SVG/1.1/DTD/svg11.dtd">
<svg xmlns="http://www.w3.org/2000/svg" xmlns:xlink="http://www.w3.org/1999/xlink" version="1.1" baseProfile="full" width="48.0067" height="48.0067" viewBox="0 0 48.01 48.01" enable-background="new 0 0 48.01 48.01" xml:space="preserve">
	<path fill="#000000" fill-opacity="1" stroke-width="0.2" stroke-linejoin="round" d="M 16.0018,13.0019L 16.0009,18.4508C 18.0067,16.3263 20.8494,15.0004 24.0018,15.0004C 30.0778,15.0004 35.0033,19.926 35.0033,26.0019C 35.0033,29.0399 33.772,31.7903 31.7811,33.7812L 29.3059,31.3061C 30.6633,29.9486 31.5029,28.0734 31.5029,26.002C 31.5029,21.8593 28.1446,18.501 24.0019,18.501C 21.7803,18.501 19.7843,19.4668 18.4108,21.0014L 24.0018,21.0019L 21.0018,24.002L 13.0018,24.0019L 13.0018,16.002L 16.0018,13.0019 Z "/>
</svg>
